{
    "antifeatures": {
        "Ads": "بۇ ئەپتە ئېلان بار",
        "NonFreeAdd": "بۇ ئەپ ھەقسىز بولمىغان قىستۇرمىلارنى تەۋسىيە قىلىدۇ",
        "NonFreeDep": "بۇ ئەپ ھەقسىز بولمىغان باشقا ئەپلەرگە بېقىنىدۇ",
        "NonFreeNet": "بۇ ئەپ ھەقسىز بولمىغان تور مۇلازىمەتلىرىنى تەۋسىيە قىلىدۇ",
        "Tracking": "بۇ ئەپ پائالىيەتلىرىڭىزنى ئىزلاپ، دوكلات قىلىدۇ"
    },
    "index": {
        "download_fdroid": "ف-درويدنى چۈشۈرۈش",
        "gpg_signature": "PGP ئىمزاسى",
        "introduction": "ف-درويد بولسا ئورناتقىلى بولىدىغان (ھەقسىز ۋە ئوچۇق مەنبەلىك يۇمىتال)ئاندرويد سۇپىسى ئۇيغۇلىمىلىرىنىڭ كاتالوگىدۇر. ئىشلەتكۈچى تەرەپ ئۇيغۇلىمىسى ئۈسكۈنىڭىزنىڭ يېڭىلانمىلىرىنى زىيارەت قىلىش،ئورنىتىش، ۋە ئىزلاشنى ئاسانلاشتۇرىدۇ.",
        "screenshot": "ف-درويد ئاندرويد ئۇيغۇلىما ئېكران كۆرۈنۈشلەر",
        "title": "ف-درويد دېگەن نېمە؟"
    },
    "navigation": {
        "about": "ھەققىدە",
        "browse": "كۆرۈش",
        "contribute": "تۆھپە قوشۇش",
        "documentation": "ھۆججەتلەر",
        "forum": "مۇنبەر",
        "issues": "مەسىلىلەر",
        "news": "خەۋەرلەر"
    },
    "package": {
        "author": "ئاپتور",
        "build_metadata": "مېتا سانلىق مەلۇمات قۇرۇش",
        "changelog": "ئۆزگىرىشلەر",
        "donate": "ئىئانە",
        "download": "چۈشۈرۈش [file_extension]",
        "flattr": "فلەتتر",
        "gpg_signature": "PGP ئىمزاسى",
        "issue_tracker": "مەسىلە ئىزلىگۈچ",
        "liberapay": "لىبېراپەي",
        "license": "ئىجازەتنامە",
        "minimum_android_version": "بۇ نەشىرى ئاندرويد [android_version] ياكى يېىڭىراقىنى تەلەپ قىلىدۇ.",
        "new_in_version": "يېڭى نەشىرى [latest_version]",
        "packages": "بوغچىلار",
        "permissions": "تەستىقلار",
        "signed_by_developer": "ئەسلى ئاچقۇچىلار تەرىپىدىن قۇرۇلۇپ ئىمزالانغان.",
        "signed_by_fdroid": "ف-درويد تەرىپىدىن قۇرۇلغان ۋە ئىمزالانغان،， <a href=\"[source_code_url]\"> بىلەن  tarball</a> نىڭ بىردەكلىكىگە كاپالەتلەندۈرۈلگەن .",
        "source_code": "مەنبە كودى",
        "suggest_downloading_via_fdroid": "گەرچە APK بوغچىسىنى  بىۋاسىتە چۈشۈرۈشكە بولسىمۇ،سىز بۇ شەكىلدە ئورناتقاندىن كېيىن يېڭىلانما ئۇچۇرى تاپشۇرۇپ ئالالماسلىقىڭىزدىن ۋە بۇنداق چۈشۈرۈشنىڭ ئانچە بىخەتەر ئەمەسلىكىدىن ئاگاھ بولىشىڭىز كېرەك. شۇڭا بىز سىزگە ف-درويد ئىشلىتىشىڭىزنى تەۋسىيە قىلىمىز.",
        "technical_info": "تېخنىكىلىق ئۇچۇرلار",
        "version_info": "<b>نەشىرى [package_version]</b> قوشۇلىدى ([package_version_code])-[package_added_date]",
        "website": "تورتۇرا"
    },
    "sidebars": {
        "donate": {
            "bank_transfer_name": "ئاتى",
            "bitcoin_alt": "بىتكويىن بىلەن ئىئانە",
            "flattr_alt": "فلەتتر بىلەن ئىئانە",
            "heading": "ئىئانە",
            "liberapay_alt": "لىبېراپەي بىلەن ئىئانە",
            "litecoin_alt": "لايتكوين بىلەن ئىئانە",
            "paypal_alt": "پەيپېل بىلەن ئىئانە",
            "powered_by_donations": "ف-درويدنىڭ ھاياتى كۈچى سىزنىڭ ئىئانىڭىزدىن!",
            "via_bank_transfer": "پۇل يوللاش"
        },
        "last_updated": {
            "heading": "ئاخىرقى يېڭىلىما"
        },
        "latest_packages": {
            "heading": "ئەڭ يېڭى ئۇيغۇلىمىلار"
        },
        "news": {
            "heading": "خەۋەرلەر"
        },
        "search": {
            "heading": "ئۇيغۇلىما ئىزدەش",
            "noscript": "JavaScript ئىقتىدارى قوزغىتىلغان بولىشى كېرەك"
        }
    }
}
